<svg width="32" height="32" viewBox="0 0 32 32" fill="none" xmlns="http://www.w3.org/2000/svg">
<rect x="31.5" y="31.5" width="31" height="31" rx="2.5" transform="rotate(-180 31.5 31.5)" stroke="#666666"/>
<path d="M16 12.5901L10 18.5901L11.41 20.0001L16 15.4201L20.59 20.0001L22 18.5901L16 12.5901Z" fill="#666666"/>
</svg>
