<svg width="15" height="17" viewBox="0 0 15 17" fill="none" xmlns="http://www.w3.org/2000/svg">
<path d="M7.4375 8.5C9.78496 8.5 11.6875 6.59746 11.6875 4.25C11.6875 1.90254 9.78496 0 7.4375 0C5.09004 0 3.1875 1.90254 3.1875 4.25C3.1875 6.59746 5.09004 8.5 7.4375 8.5ZM10.6184 9.58242L9.03125 15.9375L7.96875 11.4219L9.03125 9.5625H5.84375L6.90625 11.4219L5.84375 15.9375L4.25664 9.58242C1.88926 9.69531 0 11.6311 0 14.025V15.4062C0 16.2861 0.713867 17 1.59375 17H13.2812C14.1611 17 14.875 16.2861 14.875 15.4062V14.025C14.875 11.6311 12.9857 9.69531 10.6184 9.58242Z" fill="#BDBDBD"/>
</svg>
