<svg width="44" height="44" viewBox="0 0 44 44" fill="none" xmlns="http://www.w3.org/2000/svg">
<path fill-rule="evenodd" clip-rule="evenodd" d="M8.6087 0C3.85424 0 0 3.85424 0 8.6087V35.3913C0 40.1458 3.85424 44 8.6087 44H35.3913C40.1458 44 44 40.1458 44 35.3913V8.6087C44 3.85424 40.1458 0 35.3913 0H8.6087ZM31.9305 12.1037C33.0924 13.2655 33.0924 15.1493 31.9305 16.3111L24.4441 23.7975C24.3641 23.9023 24.2762 24.003 24.1804 24.0988C23.5317 24.7475 22.6581 25.0344 21.8106 24.9594C21.1277 24.9066 20.4596 24.6191 19.9373 24.0968C19.8522 24.0117 19.7733 23.9227 19.7007 23.8304L17.4431 21.5729V28.1743C17.4431 29.9328 16.0175 31.3584 14.259 31.3584C12.5005 31.3584 11.0749 29.9328 11.0749 28.1743V14.5426C11.0749 13.6333 11.456 12.8131 12.0672 12.2329C12.1057 12.1896 12.1457 12.1472 12.1872 12.1057C13.3502 10.9428 15.2356 10.9428 16.3985 12.1057L22.0598 17.7669L27.7231 12.1037C28.8849 10.9418 30.7687 10.9418 31.9305 12.1037Z" fill="#4A4A4A"/>
<circle cx="29.7481" cy="28.2931" r="3.04111" fill="white"/>
</svg>
